{
    "Table": [{
        "month": "000-030",
        "EKLUND MD, JOHN": 0.0,
        "MALHOTRA, RAJAT": 3699.44,
        "RICH MD, RANDY": 1499.6999999999998,
        "SIEGEL MD, RICHARD": 2811.08,
        "SOBOL, URSZULA": 744.7
    }, {
        "month": "031-060",
        "EKLUND MD, JOHN": 0.0,
        "MALHOTRA,
        RAJAT ":4068.8300000000008,"
        RICH MD,
        RANDY ":54639.46,"
        SIEGEL MD,
        RICHARD ":3443.9200000000005,"
        SOBOL,
        URSZULA ":1930.41},{"
        month ":"
        061 - 090 ","
        EKLUND MD,
        JOHN ":0.0,"
        MALHOTRA,
        RAJAT ":4813.17,"
        RICH MD,
        RANDY ": 4095.3199999999997,
        "SIEGEL MD, RICHARD": 551.32999999999993,
        "SOBOL, URSZULA": 1709.7600000000002
    }, {
        "month": "091-120",
        "EKLUND MD, JOHN": 0.0,
        "MALHOTRA, RAJAT": 2619.64,
        "RICH MD, RANDY": 699.31000000000006,
        "SIEGEL
        MD,
        RICHARD ":1144.9500000000003,"
        SOBOL,
        URSZULA ":1644.93},{"
        month ":"
        121 - 150 ","
        EKLUND MD,
        JOHN ":0.0,"
        MALHOTRA,
        RAJAT ":1133.02,"
        RICH MD,
        RANDY ":2844.7000000000003,"
        SIEGEL MD,
        RICHARD ":-360.86000000000013,"
        SOBOL,
        URSZULA ":2704.4900000000002},{"
        month ":"
        151 - 180 ","
        EKLUND MD,
        JOHN ":0.0,"
        MALHOTRA,
        RAJAT ":1142.77,"
        RICH
        MD,
        RANDY ":2559.7,"
        SIEGEL MD,
        RICHARD ":319.03000000000003,"
        SOBOL,
        URSZULA ":1162.8700000000001},{"
        month ": "
        181 + ",
        "EKLUND MD, JOHN": 0.0,
        "MALHOTRA, RAJAT": 56153.779999999984,
        "RICH MD, RANDY": 9341.8299999999981,
        "SIEGEL MD, RICHARD": 2559.6700000000023,
        "SOBOL, URSZULA": 12214.360000000002
    }],
    "Table1": [{
        "ChartHeaderNumber": "203",
        "ChartHeaderName": "ARLINGTON HTS NWMS"
    }],
    "Table2": [{
                "month": "000-030",
                "DALAL, JAY": 64.99,
                "LAKHANI,
                ARTI ":0.0,"
                MADEJ,
                PATRICIA ":31.0,"
                SCHNEIDERMAN,
                ELYSE ":0.0,"
                SWEET,
                DONALD ":29.13},{"
                month ":"
                031 - 060 ",
                "DALAL, JAY": 3.52,
                "LAKHANI, ARTI": 0.0,
                "MADEJ, PATRICIA": 100.49000000000001,
                "SCHNEIDERMAN, ELYSE": 101
                .69000000000001,
                "SWEET, DONALD": 125.16999999999999
            }, {
                "month": "061-090",
                "DALAL, JAY": 130.2,
                "LAKHANI, ARTI": 0.0,
                "MADEJ, PATRICIA": 46.86,
                "SCHNEIDERMAN, ELYSE": -54.019999999999996,
                "SWEET, DONALD": 86.38000000000001
            }, {
                "month": "091-120",
                "DALAL, JAY": 0.0,
                "LAKHANI, ARTI": 0.0,
                "MADEJ, PATRICIA": 47.55,
                "SCHNEIDERMAN, ELYSE": 0.0,
                "SWEET, DONALD": 4.29
            }, {
                "month": "121-150",
                "DALAL, JAY": 73.25,
                "LAKHANI, ARTI": 0.0,
                "MADEJ, PATRICIA": 4.85,
                "SCHNEIDERMAN, ELYSE": 3.1,
                "SWEET, DONALD": 35.82
            }, {
                "month": "151-180",
                "DALAL, JAY": 0.0,
                "LAKHANI,
                ARTI ":0.0,"
                MADEJ,
                PATRICIA ":0.0,"
                SCHNEIDERMAN,
                ELYSE ":-17.919999999999998,"
                SWEET,
                DONALD ":1.37},{"
                month ": "
                181 + ",
                "DALAL, JAY": 25.25,
                "LAKHANI, ARTI": 0.0,
                "MADEJ, PATRICIA": 34.77,
                "SCHNEIDERMAN, ELYSE": 6.7,
                "SWEET,
                DONALD ":572.56000000000006}],"
                Table3 ":[{"
                ChartHeaderNumber ":"
                271 ","
                ChartHeaderName ":"
                BOLINGBROOK "}
            ], "Table4": [{
                "month": "000-030",
                "DESAI, APURVA": 1581.27,
                "MANDAL, ROBERT": 5223.7499999999991,
                "MANJUNATH,
                RAJINI ":15663.579999999998,"
                NABRINSKY,
                STANLEY ":2857.27,"
                SINGH,
                VEERPAL ":3180.3800000000006,"
                YESHWANT,
                CHILAKAMARRI ":3841.39,"
                ZAHIR,
                SYED ":1505.99},{"
                month ":"
                031 - 060 ","
                DESAI,
                APURVA ":4261.0700000000006,
                "MANDAL, ROBERT": 10346.99,
                "MANJUNATH, RAJINI": 3548.9500000000012,
                "NABRINSKY, STANLEY": 4431.1999999999989,
                "SINGH, VEERPAL": 5724.1399999999994,
                "YESHWANT, CHILAKAMARRI": 6020.93,
                "ZAHIR, SYED": 0.0
            }, {
                "month": "061-090",
                "DESAI, APURVA": 3735.98,
                "MANDAL, ROBERT": 9129.8199999999979,
                "MANJUNATH, RAJINI": 10045.069999999998,
                "NABRINSKY,
                STANLEY ":2439.7700000000004,"
                SINGH,
                VEERPAL ":3168.7500000000009,"
                YESHWANT,
                CHILAKAMARRI ":3203.3799999999997,
                "ZAHIR, SYED": 1379.29
            }, {
                "month": "091-120",
                "DESAI, APURVA": 191.79,
                "MANDAL, ROBERT": 6666.3499999999985,
                "MANJUNATH, RAJINI": 6569.91,
                "NABRINSKY, STANLEY": 1512.3799999999999,
                "SINGH, VEERPAL": 3334.0100000000007,
                "YESHWANT, CHILAKAMARRI": 470.28000000000009,
                "ZAHIR, SYED": 0.0
            }, {
                "month": "121-150",
                "DESAI, APURVA": 2542
                .1,
                "MANDAL, ROBERT": 6086.54,
                "MANJUNATH, RAJINI": 5044.8200000000015,
                "NABRINSKY, STANLEY": 3763.13,
                "SINGH,
                VEERPAL ":1840.14,"
                YESHWANT,
                CHILAKAMARRI ":2955.13,"
                ZAHIR,
                SYED ":791.42},{"
                month ":"
                151 - 180 ","
                DESAI,
                APURVA ":1096.4,"
                MANDAL,
                ROBERT ":5539.98,"
                MANJUNATH,
                RAJINI ":4705.0299999999979,"
                NABRINSKY,
                STANLEY ": 1624.1200000000006,
                "SINGH, VEERPAL": 1647.76,
                "YESHWANT, CHILAKAMARRI": 1383.57,
                "ZAHIR, SYED": 1921.0900000000001
            }, {
                "month": "181+",
                "DESAI, APURVA": 5479.739999999998,
                "MANDAL, ROBERT": 26716.850000000006,
                "MANJUNATH, RAJINI": 141308.38999999996,
                "NABRINSKY, STANLEY": 47689.0,
                "SINGH, VEERPAL": 19676.670000000002,
                "YESHWANT, CHILAKAMARRI": 15735.840000000004,
                "ZAHIR, SYED": 1342.3100000000002
            }], "Table5": [{
                "ChartHeaderNumber": "280",
                "ChartHeaderName": "ELGIN"
            }], "Table6": [{
                "month": "000-030",
                "BADDI, LISA": 232.0,
                "JOSHI, PRASHANT": 0.0,
                "ROSE MD, CHRISTOPHER": 1499.8999999999996
            }, {
                "month": "031-060",
                "BADDI, LISA": 0.0,
                "JOSHI, PRASHANT": 0.0,
                "ROSE MD, CHRISTOPHER": -3900.0699999999997
            }, {
                "month": "061-090",
                "BADDI, LISA": 157.74,
                "JOSHI, PRASHANT": 0.0,
                "ROSE MD, CHRISTOPHER": 284.73
            }, {
                "month": "091-120",
                "BADDI, LISA": 37.94,
                "JOSHI, PRASHANT": 0.0,
                "ROSE MD, CHRISTOPHER": 2577.77
            }, { "month": "121-150", "BADDI, LISA": 0.0, "JOSHI, PRASHANT": 0.0, "ROSE MD, CHRISTOPHER": 147.05 }, {
                "month": "151-180",
                "BADDI, LISA": 0.0,
                "JOSHI, PRASHANT": 0.0,
                "ROSE MD, CHRISTOPHER": 147.14999999999998
            }, {
                "month": "181+",
                "BADDI, LISA": 0.0,
                "JOSHI, PRASHANT": 0.0,
                "ROSE MD, CHRISTOPHER": 1218.4500000000003
            }], "Table7": [{ "ChartHeaderNumber": "260", "ChartHeaderName": "GLEN MORTON" }], "Table8": [{
                "month": "000-030",
                "BADDI, LISA": 1142.35,
                "JOSHI, PRASHANT": 0.0,
                "ROSE MD, CHRISTOPHER": 536.98
            }, {
                "month": "031-060",
                "BADDI, LISA": 519.53,
                "JOSHI, PRASHANT": 0.0,
                "ROSE MD, CHRISTOPHER": 179.14
            }, {
                "month": "061-090",
                "BADDI, LISA": 872.33999999999992,
                "JOSHI, PRASHANT": 0.0,
                "ROSE MD, CHRISTOPHER": 218.15
            }, {
                "month": "091-120",
                "BADDI, LISA": 80.16,
                "JOSHI,
                PRASHANT ":0.0,"
                ROSE MD,
                CHRISTOPHER ":-232.94999999999996},{"
                month ":"
                121 - 150 ","
                BADDI,
                LISA ":269.09000000000003,
                "JOSHI, PRASHANT": 0.0,
                "ROSE MD, CHRISTOPHER": 327.8
            }, {
                "month": "151-180",
                "BADDI, LISA": -33.24,
                "JOSHI,
                PRASHANT ":0.0,"
                ROSE MD,
                CHRISTOPHER ":276.32},{"
                month ":"
                181 + ","
                BADDI,
                LISA ":812.3900000000001,"
                JOSHI,
                PRASHANT ":0.0,"
                ROSE MD,
                CHRISTOPHER ":714.84999999999991}],"
                Table9 ":[{"
                ChartHeaderNumber ":"
                261 ","
                ChartHeaderName ": "
                GLEN MORTON CHICAGO "
            }], "Table10": [{
                "month": "000-030",
                "DALAL, JAY": 797.25,
                "LAKHANI, ARTI": 1123.0,
                "MADEJ,
                PATRICIA ":810.34999999999991,"
                SCHNEIDERMAN,
                ELYSE ":853.13999999999987,"
                SWEET,
                DONALD ":575.46000000000015
            }, {
                "month": "031-060",
                "DALAL, JAY": 1083.47,
                "LAKHANI, ARTI": 1323.5,
                "MADEJ, PATRICIA": 1172.7099999999998,
                "SCHNEIDERMAN, ELYSE": 298.91,
                "SWEET, DONALD": 544.79
            }, {
                "month": "061-090",
                "DALAL, JAY": 803.15,
                "LAKHANI,
                ARTI ":-9102.76,"
                MADEJ,
                PATRICIA ":501.71000000000004,"
                SCHNEIDERMAN,
                ELYSE ":16.649999999999991,"
                SWEET,
                DONALD ":842.35000000000014},{"
                month ":"
                091 - 120 ","
                DALAL,
                JAY ":247.20999999999998,"
                LAKHANI,
                ARTI ":-4.3199999999999976,
                "MADEJ, PATRICIA": 310.65,
                "SCHNEIDERMAN, ELYSE": -14921.89,
                "SWEET, DONALD": -32.919999999999987
            }, {
                "month": "121-150",
                "DALAL, JAY": 259.61,
                "LAKHANI, ARTI": -365.1,
                "MADEJ, PATRICIA": 95.759999999999991,
                "SCHNEIDERMAN,
                ELYSE ":-13.84,"
                SWEET,
                DONALD ":38.33},{"
                month ":"
                151 - 180 ","
                DALAL,
                JAY ":66.31,"
                LAKHANI,
                ARTI ":27.33,"
                MADEJ,
                PATRICIA ":58.910000000000004,"
                SCHNEIDERMAN,
                ELYSE ":10.389999999999999,"
                SWEET,
                DONALD ":449.98},{"
                month ": "
                181 + ",
                "DALAL, JAY": 144.55999999999997,
                "LAKHANI, ARTI": -820.74999999999977,
                "MADEJ, PATRICIA": 101.66999999999997,
                "SCHNEIDERMAN, ELYSE": 104.21000000000005,
                "SWEET, DONALD": 64.15
            }], "Table11": [{
                "ChartHeaderNumber": "270",
                "ChartHeaderName": "HINSDALE"
            }], "Table12": [{
                "month": "000-030",
                "DESAI, APURVA": 0.0,
                "MANDAL, ROBERT": 0
                .0,
                "MANJUNATH, RAJINI": 0.0,
                "NABRINSKY, STANLEY": 63.86,
                "SINGH, VEERPAL": 0.0,
                "YESHWANT, CHILAKAMARRI": 347
                .44,
                "ZAHIR, SYED": 0.0
            }, {
                "month": "031-060",
                "DESAI, APURVA": 0.0,
                "MANDAL, ROBERT": 60.75,
                "MANJUNATH, RAJINI": 0.0,
                "NABRINSKY, STANLEY": 202.06,
                "SINGH, VEERPAL": 0.0,
                "YESHWANT, CHILAKAMARRI": 299.34000000000003,
                "ZAHIR,
                SYED ":0.0},{"
                month ":"
                061 - 090 ","
                DESAI,
                APURVA ":0.0,"
                MANDAL,
                ROBERT ":0.0,"
                MANJUNATH,
                RAJINI ":23.76,"
                NABRINSKY,
                STANLEY ":76.25,"
                SINGH,
                VEERPAL ":0.0,"
                YESHWANT,
                CHILAKAMARRI ":644.9799999999999,"
                ZAHIR,
                SYED ":0.0}, {
                "month": "091-120",
                "DESAI, APURVA": 0.0,
                "MANDAL, ROBERT": 0.0,
                "MANJUNATH, RAJINI": 496.44,
                "NABRINSKY, STANLEY": 239.52999999999997,
                "SINGH, VEERPAL": 0.0,
                "YESHWANT, CHILAKAMARRI": 170.33,
                "ZAHIR, SYED": 349.59
            }, {
                "month": "121-150",
                "DESAI, APURVA": 0.0,
                "MANDAL, ROBERT": 0.0,
                "MANJUNATH, RAJINI": 15.5,
                "NABRINSKY, STANLEY": 132
                .0,
                "SINGH, VEERPAL": 0.0,
                "YESHWANT, CHILAKAMARRI": 156.76999999999998,
                "ZAHIR, SYED": 0.0
            }, {
                "month": "151-180",
                "DESAI, APURVA": 0.0,
                "MANDAL, ROBERT": 0.0,
                "MANJUNATH, RAJINI": 70.0,
                "NABRINSKY, STANLEY": 166.6,
                "SINGH,
                VEERPAL ":0.0,"
                YESHWANT,
                CHILAKAMARRI ":19.950000000000003,"
                ZAHIR,
                SYED ":0.0},{"
                month ":"
                181 + ","
                DESAI,
                APURVA ":14.34,"
                MANDAL,
                ROBERT ":29.78,"
                MANJUNATH,
                RAJINI ":772.43000000000006,"
                NABRINSKY,
                STANLEY ":1397
                .97,
                "SINGH, VEERPAL": 178.10000000000002,
                "YESHWANT, CHILAKAMARRI": 1454.8499999999997,
                "ZAHIR, SYED": 42
                .45
            }], "Table13": [{ "ChartHeaderNumber": "283", "ChartHeaderName": "HOFFMAN ESTATES" }], "Table14": [{
                "month": "000-030",
                "DESAI, APURVA": 365.84000000000003,
                "MANJUNATH, RAJINI": 168.73
            }, {
                "month": "031-060",
                "DESAI,
                APURVA ":493.81999999999994,"
                MANJUNATH,
                RAJINI ":388.24},{"
                month ":"
                061 - 090 ","
                DESAI,
                APURVA ":131.07,"
                MANJUNATH,
                RAJINI ":1163.82},{"
                month ":"
                091 - 120 ","
                DESAI,
                APURVA ":101.08,"
                MANJUNATH,
                RAJINI ":77.75},{"
                month ":"
                121 - 150 ",
                "DESAI, APURVA": 752.39,
                "MANJUNATH, RAJINI": 263.55
            }, {
                "month": "151-180",
                "DESAI, APURVA": 20.88,
                "MANJUNATH,
                RAJINI ":-76.229999999999961},{"
                month ":"
                181 + ","
                DESAI,
                APURVA ":900.14,"
                MANJUNATH,
                RAJINI ":799.62999999999988
            }], "Table15": [{ "ChartHeaderNumber": "284", "ChartHeaderName": "HUNTLEY" }], "Table16": [{
                "month": "000-030",
                "DESAI, APURVA": 800.52,
                "MANDAL, ROBERT": 0.0,
                "MANJUNATH, RAJINI": 0.0,
                "NABRINSKY, STANLEY": 57.16,
                "SINGH,
                VEERPAL ":1583.21,"
                YESHWANT,
                CHILAKAMARRI ":0.0,"
                ZAHIR,
                SYED ":880.26},{"
                month ":"
                031 - 060 ","
                DESAI,
                APURVA ": 1937.93,
                "MANDAL, ROBERT": 228.73,
                "MANJUNATH, RAJINI": 401.92,
                "NABRINSKY, STANLEY": 0.0,
                "SINGH, VEERPAL": 1911.9299999999998,
                "YESHWANT, CHILAKAMARRI": 0.0,
                "ZAHIR, SYED": 2102.4
            }, {
                "month": "061-090",
                "DESAI, APURVA": -4489.09,
                "MANDAL, ROBERT": 28.33,
                "MANJUNATH, RAJINI": 55.78,
                "NABRINSKY, STANLEY": 442.08,
                "SINGH, VEERPAL": 629.81,
                "YESHWANT, CHILAKAMARRI": 61.12,
                "ZAHIR, SYED": 756.48
            }, {
                "month": "091-120",
                "DESAI, APURVA": 2435
                .27,
                "MANDAL, ROBERT": 35.6,
                "MANJUNATH, RAJINI": 0.0,
                "NABRINSKY, STANLEY": 0.0,
                "SINGH, VEERPAL": 2084.97,
                "YESHWANT,
                CHILAKAMARRI ":0.0,"
                ZAHIR,
                SYED ":2086.0499999999997},{"
                month ":"
                121 - 150 ","
                DESAI,
                APURVA ":2694.45,"
                MANDAL,
                ROBERT ":0.0,"
                MANJUNATH,
                RAJINI ":185.57,"
                NABRINSKY,
                STANLEY ":0.0,"
                SINGH,
                VEERPAL ":2163.1400000000003,
                "YESHWANT, CHILAKAMARRI": 0.0,
                "ZAHIR, SYED": 1749.74
            }, {
                "month": "151-180",
                "DESAI, APURVA": 1712.32,
                "MANDAL,
                ROBERT ":7.87,"
                MANJUNATH,
                RAJINI ":0.0,"
                NABRINSKY,
                STANLEY ":376.0,"
                SINGH,
                VEERPAL ":1661.18,"
                YESHWANT,
                CHILAKAMARRI ":0.0,"
                ZAHIR,
                SYED ":904.31},{"
                month ":"
                181 + ","
                DESAI,
                APURVA ":6201.2199999999993,"
                MANDAL,
                ROBERT ":793.17,"
                MANJUNATH,
                RAJINI ":254.72,"
                NABRINSKY,
                STANLEY ":110.41999999999999,"
                SINGH,
                VEERPAL ": 9112.6199999999972,
                "YESHWANT, CHILAKAMARRI": 327.26,
                "ZAHIR, SYED": 9891.1300000000047
            }], "Table17": [{
                "ChartHeaderNumber": "281",
                "ChartHeaderName": "MCHENRY"
            }], "Table18": [{
                "month": "000-030",
                "BROWN, SUSAN": 30.0,
                "EKLUND MD, JOHN": 34.72,
                "GALAMAGA, ROBERT": 88.48,
                "HAKIMIAN MD, DAVID": 737.85,
                "KLEIN MD, LEONARD": 10.5
            }, {
                "month": "031-060",
                "BROWN, SUSAN": 0.0,
                "EKLUND MD, JOHN": 114.14,
                "GALAMAGA, ROBERT": 0.0,
                "HAKIMIAN MD, DAVID": 287.42999999999995,
                "KLEIN MD, LEONARD": 9.15
            }, {
                "month": "061-090",
                "BROWN, SUSAN": 0.0,
                "EKLUND MD, JOHN": 114.5,
                "GALAMAGA, ROBERT": 0.0,
                "HAKIMIAN MD, DAVID": 2.4,
                "KLEIN MD, LEONARD": 0.0
            }, {
                "month": "091-120",
                "BROWN, SUSAN": 0.0,
                "EKLUND
                MD,
                JOHN ":0.0,"
                GALAMAGA,
                ROBERT ":300.1,"
                HAKIMIAN MD,
                DAVID ":1242.64,"
                KLEIN MD,
                LEONARD ":1698.35},{"
                month ": "
                121 - 150 ",
                "BROWN, SUSAN": 0.0,
                "EKLUND MD, JOHN": 0.0,
                "GALAMAGA, ROBERT": 0.0,
                "HAKIMIAN MD, DAVID": 822.92,
                "KLEIN MD, LEONARD": -227.26
            }, {
                "month": "151-180",
                "BROWN, SUSAN": 0.0,
                "EKLUND MD, JOHN": 0.0,
                "GALAMAGA,
                ROBERT ":0.0,"
                HAKIMIAN MD,
                DAVID ":2.6,"
                KLEIN MD,
                LEONARD ":0.0},{"
                month ":"
                181 + ","
                BROWN,
                SUSAN ":1023.06,
                "EKLUND MD, JOHN": 47.22,
                "GALAMAGA, ROBERT": 1940.78,
                "HAKIMIAN MD, DAVID": 242.81,
                "KLEIN MD, LEONARD": 708
                .11999999999989
            }], "Table19": [{
                "ChartHeaderNumber": "293",
                "ChartHeaderName": "NILES IMAGING CENTER NWMS"
            }], "Table20": [{
                "month": "000-030",
                "BROWN, SUSAN": 2295.7,
                "DESAI, APURVA": 0.0,
                "EKLUND MD, JOHN": 1334.48,
                "GALAMAGA, ROBERT": 1521.4599999999998,
                "HAKIMIAN MD, DAVID": 1411.59,
                "KLEIN MD, LEONARD": 1359.8799999999999,
                "ROSE MD, CHRISTOPHER": 0.0,
                "SCHWARTZ, JOEL": 0.0
            }, {
                "month": "031-060",
                "BROWN, SUSAN": 2820.4200000000005,
                "DESAI, APURVA": 0.0,
                "EKLUND MD, JOHN": 3851.0099999999993,
                "GALAMAGA, ROBERT": 2578.3700000000003,
                "HAKIMIAN
                MD,
                DAVID ":-1040.5800000000004,"
                KLEIN MD,
                LEONARD ":764.63000000000011,"
                ROSE MD,
                CHRISTOPHER ":0.0,"
                SCHWARTZ,
                JOEL ":0.0},{"
                month ":"
                061 - 090 ","
                BROWN,
                SUSAN ":1836.8900000000003,"
                DESAI,
                APURVA ":0.0,"
                EKLUND MD,
                JOHN ": 1854.0399999999995,
                "GALAMAGA, ROBERT": 2398.26,
                "HAKIMIAN MD, DAVID": 1476.2600000000002,
                "KLEIN MD, LEONARD": 1632.1699999999998,
                "ROSE MD, CHRISTOPHER": 0.0,
                "SCHWARTZ, JOEL": 0.0
            }, {
                "month": "091-120",
                "BROWN, SUSAN": 412.03999999999996,
                "DESAI, APURVA": 0.0,
                "EKLUND MD, JOHN": 2253.51,
                "GALAMAGA, ROBERT": 263.76,
                "HAKIMIAN
                MD,
                DAVID ":944.18,"
                KLEIN MD,
                LEONARD ":1765.0800000000002,"
                ROSE MD,
                CHRISTOPHER ":0.0,"
                SCHWARTZ,
                JOEL ": 0.0
            }, {
                "month": "121-150",
                "BROWN, SUSAN": 3766.0,
                "DESAI, APURVA": 0.0,
                "EKLUND MD, JOHN": 3425.4800000000005,
                "GALAMAGA, ROBERT": 62.709999999999994,
                "HAKIMIAN MD, DAVID": 457.69999999999993,
                "KLEIN MD, LEONARD": 386
                .87,
                "ROSE MD, CHRISTOPHER": 0.0,
                "SCHWARTZ, JOEL": 0.0
            }, {
                "month": "151-180",
                "BROWN, SUSAN": 7021.1399999999994,
                "DESAI, APURVA": 0.0,
                "EKLUND MD, JOHN": 48.819999999999979,
                "GALAMAGA, ROBERT": 1119.46,
                "HAKIMIAN MD, DAVID": -307.46000000000004,
                "KLEIN MD, LEONARD": 1915.87,
                "ROSE MD, CHRISTOPHER": 0.0,
                "SCHWARTZ, JOEL": 0.0
            }, {
                "month": "181+",
                "BROWN, SUSAN": 20594.809999999994,
                "DESAI, APURVA": 0.0,
                "EKLUND MD, JOHN": 11277.119999999999,
                "GALAMAGA,
                ROBERT ":17082.23,"
                HAKIMIAN MD,
                DAVID ":7023.2400000000016,"
                KLEIN MD,
                LEONARD ":9719.9700000000012,"
                ROSE
                MD,
                CHRISTOPHER ":0.0,"
                SCHWARTZ,
                JOEL ":-16.87}],"
                Table21 ":[{"
                ChartHeaderNumber ":"
                290 ","
                ChartHeaderName ": "
                NILES MED ONC NWMS "
            }], "Table22": [{ "month": "000-030", "SCHWARTZ, JOEL": 0.0 }, {
                "month": "031-060",
                "SCHWARTZ,
                JOEL ":0.0},{"
                month ":"
                061 - 090 ","
                SCHWARTZ,
                JOEL ":0.0},{"
                month ":"
                091 - 120 ","
                SCHWARTZ,
                JOEL ":0.0},{"
                month ": "
                121 - 150 ",
                "SCHWARTZ, JOEL": 0.0
            }, { "month": "151-180", "SCHWARTZ, JOEL": 0.0 }, {
                "month": "181+",
                "SCHWARTZ,
                JOEL ":0.0}],"
                Table23 ":[{"
                ChartHeaderNumber ":"
                299 ","
                ChartHeaderName ":"
                NILES RADIOPHARMACEUTICAL "}],"
                Table24 ": [{
                "month": "000-030",
                "BROWN, SUSAN": 0.0,
                "EKLUND MD, JOHN": 0.0,
                "GALAMAGA, ROBERT": 0.0,
                "HAKIMIAN MD, DAVID": 0.0,
                "KLEIN MD, LEONARD": 0.0
            }, {
                "month": "031-060",
                "BROWN, SUSAN": 0.0,
                "EKLUND MD, JOHN": 0.0,
                "GALAMAGA,
                ROBERT ":0.0,"
                HAKIMIAN MD,
                DAVID ":355.84,"
                KLEIN MD,
                LEONARD ":326.8},{"
                month ":"
                061 - 090 ","
                BROWN,
                SUSAN ": 759.38,
                "EKLUND MD, JOHN": 1013.5,
                "GALAMAGA, ROBERT": 0.0,
                "HAKIMIAN MD, DAVID": 0.0,
                "KLEIN MD, LEONARD": 2563.44
            }, {
                "month": "091-120",
                "BROWN, SUSAN": 0.0,
                "EKLUND MD, JOHN": 0.0,
                "GALAMAGA, ROBERT": 295.51,
                "HAKIMIAN
                MD,
                DAVID ":0.0,"
                KLEIN MD,
                LEONARD ":0.0},{"
                month ":"
                121 - 150 ","
                BROWN,
                SUSAN ":0.0,"
                EKLUND MD,
                JOHN ":0.0,
                "GALAMAGA, ROBERT": 0.0,
                "HAKIMIAN MD, DAVID": 0.0,
                "KLEIN MD, LEONARD": 354.86
            }, {
                "month": "151-180",
                "BROWN,
                SUSAN ":0.0,"
                EKLUND MD,
                JOHN ":0.0,"
                GALAMAGA,
                ROBERT ":0.0,"
                HAKIMIAN MD,
                DAVID ":0.0,"
                KLEIN MD,
                LEONARD ": 0.0
            }, {
                "month": "181+",
                "BROWN, SUSAN": 5320.0,
                "EKLUND MD, JOHN": 0.0,
                "GALAMAGA, ROBERT": 0.0,
                "HAKIMIAN MD,
                DAVID ":1374.64,"
                KLEIN MD,
                LEONARD ":732.06999999999994}],"
                Table25 ":[{"
                ChartHeaderNumber ":"
                292 ","
                ChartHeaderName ": "
                PET NILES NWMS "
            }],
            "Table26": [{ "month": "000-030", "BROWN, SUSAN": 0.0, "SCHWARTZ, JOEL": 683.42 }, {
                    "month": "031-060",
                    "BROWN, SUSAN": 0.0,
                    "SCHWARTZ, JOEL": 2386.4
                }, {
                    "month": "061-090",
                    "BROWN, SUSAN": 0.0,
                    "SCHWARTZ,
                    JOEL ":341.01},{"
                    month ":"
                    091 - 120 ","
                    BROWN,
                    SUSAN ":0.0,"
                    SCHWARTZ,
                    JOEL ":-1896.6699999999998},{"
                    month ": "
                    121 - 150 ",
                    "BROWN, SUSAN": 0.0,
                    "SCHWARTZ, JOEL": 910.17
                }, {
                    "month": "151-180",
                    "BROWN, SUSAN": 0.0,
                    "SCHWARTZ,
                    JOEL ":277.73000000000008},{"
                    month ":"
                    181 + ","
                    BROWN,
                    SUSAN ":0.0,"
                    SCHWARTZ,
                    JOEL ":5365.9999999999973}],
                    "Table27": [{ "ChartHeaderNumber": "291", "ChartHeaderName": "RADIATION ONCOLOGY NILES NWMS" }],
                    "Table28": [{
                        "month": "000-030",
                        "DESAI, APURVA": 0.0,
                        "MANDAL, ROBERT": 0.0,
                        "MANJUNATH, RAJINI": 727.22000000000014,
                        "NABRINSKY, STANLEY": 0.0,
                        "SINGH, VEERPAL": 0.0,
                        "YESHWANT, CHILAKAMARRI": 0.0,
                        "ZAHIR, SYED": 2674.78
                    }, {
                        "month": "031-060",
                        "DESAI, APURVA": 0.0,
                        "MANDAL, ROBERT": 263.0,
                        "MANJUNATH, RAJINI": 733.86,
                        "NABRINSKY, STANLEY": 0.0,
                        "SINGH, VEERPAL": 0.0,
                        "YESHWANT, CHILAKAMARRI": -102.37,
                        "ZAHIR, SYED": 69688.64
                    }, {
                        "month": "061-090",
                        "DESAI, APURVA": 834.63,
                        "MANDAL, ROBERT": 0.0,
                        "MANJUNATH, RAJINI": 1285.82,
                        "NABRINSKY, STANLEY": 194.96,
                        "SINGH, VEERPAL": 232.0,
                        "YESHWANT, CHILAKAMARRI": 16.95,
                        "ZAHIR, SYED": 2636.2200000000007
                    }, {
                        "month": "091-120",
                        "DESAI, APURVA": 0.0,
                        "MANDAL, ROBERT": 0.0,
                        "MANJUNATH, RAJINI": 266.22,
                        "NABRINSKY, STANLEY": 0.0,
                        "SINGH,
                        VEERPAL ":314.0,"
                        YESHWANT,
                        CHILAKAMARRI ":0.0,"
                        ZAHIR,
                        SYED ":3559.2099999999996},{"
                        month ":"
                        121 - 150 ","
                        DESAI,
                        APURVA ":293.26,"
                        MANDAL,
                        ROBERT ":0.0,"
                        MANJUNATH,
                        RAJINI ":571.98,"
                        NABRINSKY,
                        STANLEY ":518.33,"
                        SINGH,
                        VEERPAL ":92.43,"
                        YESHWANT,
                        CHILAKAMARRI ":0.0,"
                        ZAHIR,
                        SYED ":1258.1499999999994},{"
                        month ":"
                        151 - 180 ","
                        DESAI,
                        APURVA ":0.0,"
                        MANDAL,
                        ROBERT ":14.34,"
                        MANJUNATH,
                        RAJINI ":584.96,"
                        NABRINSKY,
                        STANLEY ":263.0,"
                        SINGH,
                        VEERPAL ": 0.0,
                        "YESHWANT, CHILAKAMARRI": 0.0,
                        "ZAHIR, SYED": 1602.6500000000003
                    }, {
                        "month": "181+",
                        "DESAI, APURVA": 356
                        .33,
                        "MANDAL, ROBERT": 0.0,
                        "MANJUNATH, RAJINI": 2976.0600000000013,
                        "NABRINSKY, STANLEY": 703.56,
                        "SINGH, VEERPAL": 313.34999999999997,
                        "YESHWANT, CHILAKAMARRI": 33.9,
                        "ZAHIR, SYED": 9955.4199999999964
                    }],
                    "Table29": [{
                        "ChartHeaderNumber": "282",
                        "ChartHeaderName": "WOODSTOCK"
                    }],
                    "series": [{
                        "valueField": "EKLUND MD, JOHN",
                        "name": "EKLUND MD,
                        JOHN "},{ "
                        valueField ":"
                        MALHOTRA,
                        RAJAT ", "
                        name ":"
                        MALHOTRA,
                        RAJAT "},{ "
                        valueField ":"
                        RICH MD,
                        RANDY ",
                        "name": "RICH MD, RANDY"
                    }, { "valueField": "SIEGEL MD, RICHARD", "name": "SIEGEL MD, RICHARD" }, {
                        "valueField": "SOBOL, URSZULA",
                        "name": "SOBOL, URSZULA"
                    }],
                    "series2": [{
                        "valueField": "DALAL, JAY",
                        "name": "DALAL, JAY"
                    }, { "valueField": "LAKHANI, ARTI", "name": "LAKHANI, ARTI" }, {
                        "valueField": "MADEJ, PATRICIA",
                        "name": "MADEJ,
                        PATRICIA "},{ "
                        valueField ":"
                        SCHNEIDERMAN,
                        ELYSE ", "
                        name ":"
                        SCHNEIDERMAN,
                        ELYSE "},{ "
                        valueField ":"
                        SWEET,
                        DONALD ", "
                        name ":"
                        SWEET,
                        DONALD "}],"
                        series4 ":[{ "
                        valueField ":"
                        DESAI,
                        APURVA ", "
                        name ":"
                        DESAI,
                        APURVA "
                    }, { "valueField": "MANDAL, ROBERT", "name": "MANDAL, ROBERT" }, {
                        "valueField": "MANJUNATH, RAJINI",
                        "name": "MANJUNATH, RAJINI"
                    }, { "valueField": "NABRINSKY, STANLEY", "name": "NABRINSKY, STANLEY" }, {
                        "valueField": "SINGH, VEERPAL",
                        "name": "SINGH, VEERPAL"
                    }, {
                        "valueField": "YESHWANT, CHILAKAMARRI",
                        "name": "YESHWANT,
                        CHILAKAMARRI "},{ "
                        valueField ":"
                        ZAHIR,
                        SYED ", "
                        name ":"
                        ZAHIR,
                        SYED "}],"
                        series6 ":[{ "
                        valueField ":"
                        BADDI,
                        LISA ", "
                        name ":"
                        BADDI,
                        LISA "},{ "
                        valueField ":"
                        JOSHI,
                        PRASHANT ", "
                        name ":"
                        JOSHI,
                        PRASHANT "},{ "
                        valueField ": "
                        ROSE MD,
                        CHRISTOPHER ",
                        "name": "ROSE MD, CHRISTOPHER"
                    }],
                    "series8": [{
                        "valueField": "BADDI, LISA",
                        "name": "BADDI, LISA"
                    }, { "valueField": "JOSHI, PRASHANT", "name": "JOSHI, PRASHANT" }, {
                        "valueField": "ROSE MD,
                        CHRISTOPHER ", "
                        name ":"
                        ROSE MD,
                        CHRISTOPHER "}],"
                        series10 ":[{ "
                        valueField ":"
                        DALAL,
                        JAY ", "
                        name ":"
                        DALAL,
                        JAY "},{ "
                        valueField ":"
                        LAKHANI,
                        ARTI ", "
                        name ":"
                        LAKHANI,
                        ARTI "},{ "
                        valueField ":"
                        MADEJ,
                        PATRICIA ", "
                        name ": "
                        MADEJ,
                        PATRICIA "
                    }, { "valueField": "SCHNEIDERMAN, ELYSE", "name": "SCHNEIDERMAN, ELYSE" }, {
                        "valueField": "SWEET, DONALD",
                        "name": "SWEET, DONALD"
                    }],
                    "series12": [{
                        "valueField": "DESAI, APURVA",
                        "name": "DESAI,
                        APURVA "},{ "
                        valueField ":"
                        MANDAL,
                        ROBERT ", "
                        name ":"
                        MANDAL,
                        ROBERT "},{ "
                        valueField ":"
                        MANJUNATH,
                        RAJINI ",
                        "name": "MANJUNATH, RAJINI"
                    }, { "valueField": "NABRINSKY, STANLEY", "name": "NABRINSKY, STANLEY" }, {
                        "valueField": "SINGH, VEERPAL",
                        "name": "SINGH, VEERPAL"
                    }, {
                        "valueField": "YESHWANT, CHILAKAMARRI",
                        "name": "YESHWANT,
                        CHILAKAMARRI "},{ "
                        valueField ":"
                        ZAHIR,
                        SYED ", "
                        name ":"
                        ZAHIR,
                        SYED "}],"
                        series14 ":[{ "
                        valueField ":"
                        DESAI,
                        APURVA ", "
                        name ":"
                        DESAI,
                        APURVA "},{ "
                        valueField ":"
                        MANJUNATH,
                        RAJINI ", "
                        name ":"
                        MANJUNATH,
                        RAJINI "}],"
                        series16 ": [{ "
                        valueField ": "
                        DESAI,
                        APURVA ", "
                        name ": "
                        DESAI,
                        APURVA " }, {
                        "valueField": "MANDAL, ROBERT",
                        "name": "MANDAL,
                        ROBERT "},{ "
                        valueField ":"
                        MANJUNATH,
                        RAJINI ", "
                        name ":"
                        MANJUNATH,
                        RAJINI "},{ "
                        valueField ":"
                        NABRINSKY,
                        STANLEY ", "
                        name ":"
                        NABRINSKY,
                        STANLEY "},{ "
                        valueField ":"
                        SINGH,
                        VEERPAL ", "
                        name ":"
                        SINGH,
                        VEERPAL "},{
                        "valueField": "YESHWANT, CHILAKAMARRI",
                        "name": "YESHWANT, CHILAKAMARRI"
                    }, {
                        "valueField": "ZAHIR, SYED",
                        "name": "ZAHIR, SYED"
                    }],
                    "series18": [{ "valueField": "BROWN, SUSAN", "name": "BROWN, SUSAN" }, {
                        "valueField": "EKLUND MD, JOHN",
                        "name": "EKLUND MD, JOHN"
                    }, {
                        "valueField": "GALAMAGA, ROBERT",
                        "name": "GALAMAGA, ROBERT"
                    }, { "valueField": "HAKIMIAN MD, DAVID", "name": "HAKIMIAN MD, DAVID" }, {
                        "valueField": "KLEIN MD, LEONARD",
                        "name": "KLEIN MD, LEONARD"
                    }],
                    "series20": [{ "valueField": "BROWN, SUSAN", "name": "BROWN, SUSAN" }, {
                            "valueField": "DESAI, APURVA",
                            "name": "DESAI, APURVA"
                        }, {
                            "valueField": "EKLUND MD, JOHN",
                            "name": "EKLUND MD, JOHN"
                        }, { "valueField": "GALAMAGA, ROBERT", "name": "GALAMAGA, ROBERT" }, {
                            "valueField": "HAKIMIAN MD, DAVID",
                            "name": "HAKIMIAN MD, DAVID"
                        }, { "valueField": "KLEIN MD, LEONARD", "name": "KLEIN MD, LEONARD" }, {
                            "valueField": "ROSE MD, CHRISTOPHER",
                            "name": "ROSE MD, CHRISTOPHER"
                        }, {
                            "valueField": "SCHWARTZ, JOEL",
                            "name": "SCHWARTZ,
                            JOEL "}],"
                            series22 ":[{ "
                            valueField ":"
                            SCHWARTZ,
                            JOEL ", "
                            name ":"
                            SCHWARTZ,
                            JOEL "}],"
                            series24 ":[{ "
                            valueField ": "
                            BROWN,
                            SUSAN ",
                            "name": "BROWN, SUSAN"
                        }, { "valueField": "EKLUND MD, JOHN", "name": "EKLUND MD, JOHN" },
                        { "valueField": "GALAMAGA, ROBERT", "name": "GALAMAGA, ROBERT" }, {
                            "valueField": "HAKIMIAN MD, DAVID",
                            "name": "HAKIMIAN MD, DAVID"
                        }, { "valueField": "KLEIN MD, LEONARD", "name": "KLEIN MD, LEONARD" }
                    ],
                    "series26": [
                        { "valueField": "BROWN, SUSAN", "name": "BROWN, SUSAN" }, {
                            "valueField": "SCHWARTZ, JOEL",
                            "name": "SCHWARTZ,
                            JOEL "}],"
                            series28 ":[{ "
                            valueField ":"
                            DESAI,
                            APURVA ", "
                            name ":"
                            DESAI,
                            APURVA "},{ "
                            valueField ":"
                            MANDAL,
                            ROBERT ", "
                            name ":"
                            MANDAL,
                            ROBERT "},{ "
                            valueField ":"
                            MANJUNATH,
                            RAJINI ", "
                            name ":"
                            MANJUNATH,
                            RAJINI "}, { "
                            valueField ": "
                            NABRINSKY,
                            STANLEY ", "
                            name ": "
                            NABRINSKY,
                            STANLEY " }, {
                                "valueField": "SINGH, VEERPAL",
                                "name": "SINGH, VEERPAL"
                            },
                            { "valueField": "YESHWANT, CHILAKAMARRI", "name": "YESHWANT, CHILAKAMARRI" },
                            {
                                "valueField": "ZAHIR, SYED",
                                "name": "ZAHIR, SYED"
                            }]
                    }
